{
	"1":{
		"desc":"描述1",
		"icon":"fzdd",
		"index":1,
		"name":"章节一",
		"reward":[[1,300]]},
	"2":{
		"desc":"描述2",
		"icon":"fzdd1",
		"index":2,
		"name":"章节二",
		"reward":[[1,600]]},
	"3":{
		"desc":"描述3",
		"icon":"fzdd",
		"index":3,
		"name":"章节三",
		"reward":[[1,900]]}}
