{
	"1":{
		"index":1,
		"name":"争霸赛",
		"src":"1.比赛采取5V5的战斗模式，参赛者最多可布阵五只恐龙每只恐龙可助阵两只恐龙参与战斗。\n2.在龙王争霸赛中，玩家可通过挑战其他玩家获得龙王积分，来提升排名，赢取奖励。\n3.玩家在战斗中获胜，积分将提升，失败，积分将降低。\n4.每周总挑战次数为25次，每次挑战会消耗一次挑战机会。\n5.每个赛季都会根据排名给予参赛者丰厚的奖励，不要错过哦！\n6.龙王争霸赛周期为每周两天，赛季结束时将根据结算时的排名发放龙王奖励，并重置所有玩家的龙王积分，积分重置后统一为1000积分。\n7.争霸赛上阵/助阵过程中可做提升处理 不可做消耗处理 如提升：升星；繁殖；养殖，如消耗：回收；升星消耗。"},
	"2":{
		"index":2,
		"name":"繁殖界面",
		"src":"1. 每只恐龙繁殖次数查看恐龙详情，点亮的叶子数量为繁殖次数。\n2. 成年恐龙才可进行繁殖，幼年恐龙不可繁殖。\n3. 繁殖双方必须是一只雄性和一只雌性。\n4 .恐龙蛋孵化出来的恐龙外形继承母性的模型，属性成长值以父母性双方成长值为基础随机继承。\n5. 通过繁殖有较大的概率获得变异恐龙。\n6. 上阵和助阵中的恐龙不能繁殖。"},
	"3":{
		"index":3,
		"name":"养殖",
		"src":"1.养殖4只恐龙，成长值存储上限12小时，每分钟获得成长值为：当前最高级食物所得成长值*1%，累计成长值可升等级上限为当前恐龙的最高等级。\n2.上阵中的恐龙不能进行养殖。\n3.当前最高等级的恐龙不能进行养殖。"},
	"4":{
		"index":4,
		"name":"升星",
		"src":"1.恐龙达到指定等级后可进行升星，升至指定星级可解锁全新外形。\n2.每次升星都需要消耗同星级同品种的恐龙。\n"},
	"5":{
		"index":5,
		"name":"跨服赛",
		"src":"1.跨服争霸赛每两周开启一次，活动结束后会根据每名玩家的个人排名以及所在服务器的区服排名发放奖励，除了提升自己的排名，也不要忘记击败其他区服的玩家，提升本服的排名哦！\n2.跨服争霸采取5V5的战斗模式，参赛者最多可布阵5只恐龙，每只恐龙可助阵2只恐龙。\n3.在跨服争霸中，玩家可通过挑战其他玩家获得积分，提升排名，赢取奖励。玩家每次活动可挑战25次，在战斗中获胜积分将提升，在战斗中失败积分会降低。\n4.每次跨服争霸赛开启时都会将积分重置为1000分。\n"},
	"6":{
		"index":6,
		"name":"繁殖规则",
		"src":"1.幼年恐龙没有繁殖次数，需要成年后可获得繁殖次数。\n2.繁殖成功后会减少一次繁殖次数。\n3.绿色叶子代表繁殖次数，灰色叶子代表已使用/不可繁殖。\n4.成年后获得繁殖次数以概率获得0~3次。\n"}}
