{
	"1":{
		"index":1,
		"name":"霸王龙",
		"pet_cfg_id":1,
		"weight":12},
	"2":{
		"index":2,
		"name":"棘龙",
		"pet_cfg_id":2,
		"weight":12},
	"3":{
		"index":3,
		"name":"迅猛龙",
		"pet_cfg_id":3,
		"weight":87},
	"4":{
		"index":4,
		"name":"肿头龙",
		"pet_cfg_id":4,
		"weight":87},
	"5":{
		"index":5,
		"name":"鲨齿龙",
		"pet_cfg_id":5,
		"weight":12},
	"6":{
		"index":6,
		"name":"翼龙",
		"pet_cfg_id":6,
		"weight":12},
	"7":{
		"index":7,
		"name":"三角龙",
		"pet_cfg_id":7,
		"weight":12},
	"8":{
		"index":8,
		"name":"禽龙",
		"pet_cfg_id":8,
		"weight":100},
	"9":{
		"index":9,
		"name":"副栉龙",
		"pet_cfg_id":9,
		"weight":101},
	"10":{
		"index":10,
		"name":"腕龙",
		"pet_cfg_id":10,
		"weight":56},
	"12":{
		"index":12,
		"name":"剑龙",
		"pet_cfg_id":12,
		"weight":55},
	"13":{
		"index":13,
		"name":"雷龙",
		"pet_cfg_id":13,
		"weight":55},
	"14":{
		"index":14,
		"name":"甲龙",
		"pet_cfg_id":14,
		"weight":56},
	"15":{
		"index":15,
		"name":"板龙",
		"pet_cfg_id":15,
		"weight":87},
	"16":{
		"index":16,
		"name":"无畏龙",
		"pet_cfg_id":16,
		"weight":55},
	"17":{
		"index":17,
		"name":"快盗龙",
		"pet_cfg_id":17,
		"weight":55},
	"18":{
		"index":18,
		"name":"食肉牛龙",
		"pet_cfg_id":18,
		"weight":55},
	"19":{
		"index":19,
		"name":"阿马加龙",
		"pet_cfg_id":19,
		"weight":12},
	"20":{
		"index":20,
		"name":"恐爪龙",
		"pet_cfg_id":20,
		"weight":12},
	"21":{
		"index":21,
		"name":"羽王龙",
		"pet_cfg_id":21,
		"weight":55},
	"22":{
		"index":22,
		"name":"蛮龙",
		"pet_cfg_id":22,
		"weight":12},
	"23":{
		"index":23,
		"name":"异特龙",
		"pet_cfg_id":23,
		"weight":12},
	"24":{
		"index":24,
		"name":"加斯顿龙",
		"pet_cfg_id":24,
		"weight":12},
	"25":{
		"index":25,
		"name":"辽宁龙",
		"pet_cfg_id":25,
		"weight":53}}
