{
	"1":{
		"coin":100,
		"index":1},
	"2":{
		"ad":1,
		"index":2,
		"konglong":[10,12,13,14,16,17,18,21]},
	"3":{
		"coin":1500,
		"index":3},
	"4":{
		"index":4,
		"suipian":[30,[203,204,215]]},
	"5":{
		"index":5,
		"suipian":[30,[210,212,213,214,216,217,218,221]]},
	"6":{
		"index":6,
		"suipian":[30,[201,202,205,206,207,219,220,222]]},
	"7":{
		"ad":1,
		"index":7,
		"konglong":[1,2,5,6,7,19,20,22]}}
